Current configuration:
[NAME]		[DEFLT]	[VALUE]
-allphones	no	no
-cntthresh	0.00001	1.000000e-05
-csplitmax	100	2000
-csplitmin	1	1
-csplitthr	8e-4	0.000000e+00
-example	no	no
-fullvar	no	no
-help		no	no
-meanfn			/home/saria/Downloads/tutorial2/trainv2/trainv2/aze/model_parameters/aze.cd_cont_untied/means
-mixwfn			/home/saria/Downloads/tutorial2/trainv2/trainv2/aze/model_parameters/aze.cd_cont_untied/mixture_weights
-moddeffn		/home/saria/Downloads/tutorial2/trainv2/trainv2/aze/model_architecture/aze.untied.mdef
-mwfloor	1e-4	1.000000e-08
-phone			Q
-psetfn			/home/saria/Downloads/tutorial2/trainv2/trainv2/aze/model_architecture/aze.tree_questions
-ssplitmax	5	7
-ssplitmin	1	1
-ssplitthr	8e-4	0.000000e+00
-state			1
-stwt			1.0,0.05,0.0,
-treefn			/home/saria/Downloads/tutorial2/trainv2/trainv2/aze/trees/aze.unpruned/Q-1.dtree
-ts2cbfn	.semi.	.cont.
-varfloor	0.00001	1.000000e-05
-varfn			/home/saria/Downloads/tutorial2/trainv2/trainv2/aze/model_parameters/aze.cd_cont_untied/variances

INFO: main.c(223): Reading: /home/saria/Downloads/tutorial2/trainv2/trainv2/aze/model_architecture/aze.untied.mdef
INFO: model_def_io.c(573): Model definition info:
INFO: model_def_io.c(574): 963 total models defined (32 base, 931 tri)
INFO: model_def_io.c(575): 3852 total states
INFO: model_def_io.c(576): 2889 total tied states
INFO: model_def_io.c(577): 96 total tied CI states
INFO: model_def_io.c(578): 32 total tied transition matrices
INFO: model_def_io.c(579): 4 max state/model
INFO: model_def_io.c(580): 4 min state/model
INFO: main.c(242): Building trees for [Q A A b] through [Q Z EU b]
INFO: main.c(269): Covering states |[2115 2186]| == 72
INFO: main.c(275): Reading: /home/saria/Downloads/tutorial2/trainv2/trainv2/aze/model_parameters/aze.cd_cont_untied/mixture_weights
INFO: s3mixw_io.c(173): Read /home/saria/Downloads/tutorial2/trainv2/trainv2/aze/model_parameters/aze.cd_cont_untied/mixture_weights [72x1x1 array]
INFO: main.c(311): 24 of 24 models have observation count greater than 0.000010
INFO: main.c(95): nrm stwt: 0.045 0.909 0.045 
INFO: s3gau_io.c(169): Read /home/saria/Downloads/tutorial2/trainv2/trainv2/aze/model_parameters/aze.cd_cont_untied/means [2889x1x1 array]
INFO: s3gau_io.c(169): Read /home/saria/Downloads/tutorial2/trainv2/trainv2/aze/model_parameters/aze.cd_cont_untied/variances [2889x1x1 array]
INFO: main.c(549): Reading: /home/saria/Downloads/tutorial2/trainv2/trainv2/aze/model_architecture/aze.tree_questions
INFO: main.c(588): 176 total simple questions (168 phone; 8 word bndry)
INFO: main.c(590): 42 Left Only questions, and 42 Right Only questions
INFO: dtree.c(1478): Final simple tree
|( QUESTION2_10_L -1 -1.706e+06 2.088e+04 7.034e+03
|    ( - -4.646e+05 2 0 QUESTION2_11_L -1 5.067e+02 2.004e+03)
|    ( QUESTION0_0_R 1 -1.220e+06 1.136e+04 5.030e+03
|        ( WDBNDRY_I 0 -8.144e+05 2.339e+03 3.431e+03
|            ( QUESTION14 1 -3.039e+05 1.346e+03 1.293e+03
|                ( - -3.433e+04 1 0)
|                ( QUESTION0_1_R 1 -2.683e+05 1.272e+03 1.144e+03
|                    ( - -1.113e+05 2 0 QUESTION0_2_R 1 9.922e+02 4.744e+02)
|                    ( - -1.557e+05 3 0 QUESTION0 1 4.968e+02 6.697e+02)))
|            ( QUESTION1 1 -5.082e+05 1.548e+03 2.137e+03
|                ( - -8.215e+04 3 0 QUESTION0 -1 2.199e+02 3.492e+02)
|                ( - -4.245e+05 9 0 QUESTION15 -1 1.048e+03 1.788e+03)))
|        ( QUESTION0_15_R 1 -3.946e+05 5.100e+03 1.599e+03
|            ( - -9.324e+04 2 0 WDBNDRY_E 0 9.688e+02 3.934e+02)
|            ( - -2.963e+05 2 0 WDBNDRY_E 0 1.157e+03 1.206e+03))))
s>    ( QUESTION2_10_L -1 -1.706e+06 2.088e+04 7.034e+03
s>        ( - -4.646e+05 2 0 QUESTION2_11_L -1 5.067e+02 2.004e+03)
s>        ( QUESTION0_0_R 1 -1.220e+06 1.136e+04 5.030e+03
s>            ( WDBNDRY_I 0 -8.144e+05 2.339e+03 3.431e+03
s>                ( QUESTION14 1 -3.039e+05 1.346e+03 1.293e+03
s>                    ( - -3.433e+04 1 0)
s>                    ( QUESTION0_1_R 1 -2.683e+05 1.272e+03 1.144e+03
s>                        ( - -1.113e+05 2 0 QUESTION0_2_R 1 9.922e+02 4.744e+02)
s>                        ( - -1.557e+05 3 0 QUESTION0 1 4.968e+02 6.697e+02)))
s>                ( QUESTION1 1 -5.082e+05 1.548e+03 2.137e+03
s>                    ( - -8.215e+04 3 0 QUESTION0 -1 2.199e+02 3.492e+02)
s>                    ( - -4.245e+05 9 0 QUESTION15 -1 1.048e+03 1.788e+03)))
s>            ( QUESTION0_15_R 1 -3.946e+05 5.100e+03 1.599e+03
s>                ( - -9.324e+04 2 0 WDBNDRY_E 0 9.688e+02 3.934e+02)
s>                ( - -2.963e+05 2 0 WDBNDRY_E 0 1.157e+03 1.206e+03))))INFO: dtree.c(1315): Comp split 0
INFO: dtree.c(1439): stop. leaf nodes are specific
INFO: dtree.c(1478): Final simple tree
|( QUESTION0 -1 -4.999e+05 1.020e+03 2.153e+03
|    ( - -3.433e+04 1 0)
|    ( QUESTION2_11_L -1 -4.646e+05 5.067e+02 2.004e+03
|        ( - -3.645e+04 1 0)
|        ( - -4.276e+05 1 0)))
s>    ( QUESTION0 -1 -4.999e+05 1.020e+03 2.153e+03
s>        ( - -3.433e+04 1 0)
s>        ( QUESTION2_11_L -1 -4.646e+05 5.067e+02 2.004e+03
s>            ( - -3.645e+04 1 0)
s>            ( - -4.276e+05 1 0)))INFO: dtree.c(1478): Final simple tree
|( QUESTION0_0_R 1 -1.184e+06 1.131e+04 4.881e+03
|    ( WDBNDRY_I 0 -7.786e+05 2.132e+03 3.282e+03
|        ( QUESTION0_1_R 1 -2.683e+05 1.272e+03 1.144e+03
|            ( - -1.113e+05 2 0 QUESTION0_2_R 1 9.922e+02 4.744e+02)
|            ( - -1.557e+05 3 0 QUESTION0 1 4.968e+02 6.697e+02))
|        ( QUESTION1 1 -5.082e+05 1.548e+03 2.137e+03
|            ( - -8.215e+04 3 0 QUESTION0 -1 2.199e+02 3.492e+02)
|            ( QUESTION15 -1 -4.245e+05 1.048e+03 1.788e+03
|                ( - -1.050e+05 2 0 QUESTION0 1 6.944e+02 4.531e+02)
|                ( - -3.184e+05 7 0 WDBNDRY_B 0 7.202e+02 1.335e+03))))
|    ( QUESTION0_15_R 1 -3.946e+05 5.100e+03 1.599e+03
|        ( - -9.324e+04 2 0 WDBNDRY_E 0 9.688e+02 3.934e+02)
|        ( WDBNDRY_E 0 -2.963e+05 1.157e+03 1.206e+03
|            ( - -2.343e+04 1 0)
|            ( - -2.717e+05 1 0))))
s>    ( QUESTION0_0_R 1 -1.184e+06 1.131e+04 4.881e+03
s>        ( WDBNDRY_I 0 -7.786e+05 2.132e+03 3.282e+03
s>            ( QUESTION0_1_R 1 -2.683e+05 1.272e+03 1.144e+03
s>                ( - -1.113e+05 2 0 QUESTION0_2_R 1 9.922e+02 4.744e+02)
s>                ( - -1.557e+05 3 0 QUESTION0 1 4.968e+02 6.697e+02))
s>            ( QUESTION1 1 -5.082e+05 1.548e+03 2.137e+03
s>                ( - -8.215e+04 3 0 QUESTION0 -1 2.199e+02 3.492e+02)
s>                ( QUESTION15 -1 -4.245e+05 1.048e+03 1.788e+03
s>                    ( - -1.050e+05 2 0 QUESTION0 1 6.944e+02 4.531e+02)
s>                    ( - -3.184e+05 7 0 WDBNDRY_B 0 7.202e+02 1.335e+03))))
s>        ( QUESTION0_15_R 1 -3.946e+05 5.100e+03 1.599e+03
s>            ( - -9.324e+04 2 0 WDBNDRY_E 0 9.688e+02 3.934e+02)
s>            ( WDBNDRY_E 0 -2.963e+05 1.157e+03 1.206e+03
s>                ( - -2.343e+04 1 0)
s>                ( - -2.717e+05 1 0))))INFO: dtree.c(1315): Comp split 1
INFO: dtree.c(1439): stop. leaf nodes are specific
INFO: dtree.c(1478): Final simple tree
|( WDBNDRY_E 0 -2.963e+05 1.157e+03 1.206e+03
|    ( - -2.343e+04 1 0)
|    ( - -2.717e+05 1 0))
s>    ( WDBNDRY_E 0 -2.963e+05 1.157e+03 1.206e+03
s>        ( - -2.343e+04 1 0)
s>        ( - -2.717e+05 1 0))INFO: dtree.c(1478): Final simple tree
|( QUESTION0_0_R 1 -8.743e+05 2.479e+03 3.675e+03
|    ( WDBNDRY_I 0 -7.786e+05 2.132e+03 3.282e+03
|        ( QUESTION0_1_R 1 -2.683e+05 1.272e+03 1.144e+03
|            ( QUESTION0_2_R 1 -1.113e+05 9.922e+02 4.744e+02
|                ( - -3.013e+04 1 0)
|                ( - -8.017e+04 1 0))
|            ( - -1.557e+05 3 0 QUESTION0 1 4.968e+02 6.697e+02))
|        ( QUESTION1 1 -5.082e+05 1.548e+03 2.137e+03
|            ( - -8.215e+04 3 0 QUESTION0 -1 2.199e+02 3.492e+02)
|            ( QUESTION15 -1 -4.245e+05 1.048e+03 1.788e+03
|                ( - -1.050e+05 2 0 QUESTION0 1 6.944e+02 4.531e+02)
|                ( - -3.184e+05 7 0 WDBNDRY_B 0 7.202e+02 1.335e+03))))
|    ( WDBNDRY_E 0 -9.324e+04 9.688e+02 3.934e+02
|        ( - -2.604e+04 1 0)
|        ( - -6.623e+04 1 0)))
s>    ( QUESTION0_0_R 1 -8.743e+05 2.479e+03 3.675e+03
s>        ( WDBNDRY_I 0 -7.786e+05 2.132e+03 3.282e+03
s>            ( QUESTION0_1_R 1 -2.683e+05 1.272e+03 1.144e+03
s>                ( QUESTION0_2_R 1 -1.113e+05 9.922e+02 4.744e+02
s>                    ( - -3.013e+04 1 0)
s>                    ( - -8.017e+04 1 0))
s>                ( - -1.557e+05 3 0 QUESTION0 1 4.968e+02 6.697e+02))
s>            ( QUESTION1 1 -5.082e+05 1.548e+03 2.137e+03
s>                ( - -8.215e+04 3 0 QUESTION0 -1 2.199e+02 3.492e+02)
s>                ( QUESTION15 -1 -4.245e+05 1.048e+03 1.788e+03
s>                    ( - -1.050e+05 2 0 QUESTION0 1 6.944e+02 4.531e+02)
s>                    ( - -3.184e+05 7 0 WDBNDRY_B 0 7.202e+02 1.335e+03))))
s>        ( WDBNDRY_E 0 -9.324e+04 9.688e+02 3.934e+02
s>            ( - -2.604e+04 1 0)
s>            ( - -6.623e+04 1 0)))INFO: dtree.c(1315): Comp split 2
INFO: dtree.c(1478): Final simple tree
|( WDBNDRY_B 0 -5.197e+05 2.016e+03 2.182e+03
|    ( QUESTION15 -1 -3.966e+05 9.404e+02 1.681e+03
|        ( QUESTION0 1 -1.050e+05 6.944e+02 4.531e+02
|            ( - -7.162e+04 1 0)
|            ( - -3.269e+04 1 0))
|        ( SILENCE -1 -2.907e+05 6.688e+02 1.228e+03
|            ( - -2.721e+04 1 0)
|            ( QUESTION6 -1 -2.628e+05 5.184e+02 1.108e+03
|                ( - -1.222e+05 2 0)
|                ( QUESTION0 1 -1.401e+05 4.919e+02 5.881e+02
|                    ( - -3.383e+04 1 0)
|                    ( - -1.058e+05 2 0 QUESTION0 -1 3.821e+02 4.395e+02)))))
|    ( WDBNDRY_E 0 -1.210e+05 1.379e+03 5.008e+02
|        ( - -5.344e+04 2 0 QUESTION0_0_R 1 4.081e+02 2.186e+02)
|        ( - -6.623e+04 1 0)))
s>    ( WDBNDRY_B 0 -5.197e+05 2.016e+03 2.182e+03
s>        ( QUESTION15 -1 -3.966e+05 9.404e+02 1.681e+03
s>            ( QUESTION0 1 -1.050e+05 6.944e+02 4.531e+02
s>                ( - -7.162e+04 1 0)
s>                ( - -3.269e+04 1 0))
s>            ( SILENCE -1 -2.907e+05 6.688e+02 1.228e+03
s>                ( - -2.721e+04 1 0)
s>                ( QUESTION6 -1 -2.628e+05 5.184e+02 1.108e+03
s>                    ( - -1.222e+05 2 0)
s>                    ( QUESTION0 1 -1.401e+05 4.919e+02 5.881e+02
s>                        ( - -3.383e+04 1 0)
s>                        ( - -1.058e+05 2 0 QUESTION0 -1 3.821e+02 4.395e+02)))))
s>        ( WDBNDRY_E 0 -1.210e+05 1.379e+03 5.008e+02
s>            ( - -5.344e+04 2 0 QUESTION0_0_R 1 4.081e+02 2.186e+02)
s>            ( - -6.623e+04 1 0)))INFO: dtree.c(1439): stop. leaf nodes are specific
INFO: dtree.c(1478): Final simple tree
|( WDBNDRY_B 0 -3.519e+05 1.477e+03 1.493e+03
|    ( QUESTION0 -1 -8.215e+04 2.199e+02 3.492e+02
|        ( - -3.236e+04 1 0)
|        ( - -4.957e+04 2 0))
|    ( QUESTION0_1_R 1 -2.683e+05 1.272e+03 1.144e+03
|        ( QUESTION0_2_R 1 -1.113e+05 9.922e+02 4.744e+02
|            ( - -3.013e+04 1 0)
|            ( - -8.017e+04 1 0))
|        ( QUESTION0 1 -1.557e+05 4.968e+02 6.697e+02
|            ( QUESTION1 -1 -9.094e+04 1.573e+02 3.929e+02
|                ( - -6.180e+04 1 0)
|                ( - -2.898e+04 1 0))
|            ( - -6.426e+04 1 0))))
s>    ( WDBNDRY_B 0 -3.519e+05 1.477e+03 1.493e+03
s>        ( QUESTION0 -1 -8.215e+04 2.199e+02 3.492e+02
s>            ( - -3.236e+04 1 0)
s>            ( - -4.957e+04 2 0))
s>        ( QUESTION0_1_R 1 -2.683e+05 1.272e+03 1.144e+03
s>            ( QUESTION0_2_R 1 -1.113e+05 9.922e+02 4.744e+02
s>                ( - -3.013e+04 1 0)
s>                ( - -8.017e+04 1 0))
s>            ( QUESTION0 1 -1.557e+05 4.968e+02 6.697e+02
s>                ( QUESTION1 -1 -9.094e+04 1.573e+02 3.929e+02
s>                    ( - -6.180e+04 1 0)
s>                    ( - -2.898e+04 1 0))
s>                ( - -6.426e+04 1 0))))INFO: dtree.c(1315): Comp split 3
INFO: dtree.c(1439): stop. leaf nodes are specific
INFO: dtree.c(1478): Final simple tree
|( QUESTION0 1 -3.632e+05 9.209e+02 1.539e+03
|    ( QUESTION0 -1 -1.337e+05 7.221e+02 5.801e+02
|        ( - -3.383e+04 1 0)
|        ( SILENCE -1 -9.918e+04 3.527e+02 4.315e+02
|            ( - -2.721e+04 1 0)
|            ( - -7.162e+04 1 0)))
|    ( QUESTION6 -1 -2.285e+05 5.610e+02 9.594e+02
|        ( - -1.222e+05 2 0)
|        ( QUESTION0 -1 -1.058e+05 3.821e+02 4.395e+02
|            ( - -3.726e+04 1 0)
|            ( - -6.815e+04 1 0))))
s>    ( QUESTION0 1 -3.632e+05 9.209e+02 1.539e+03
s>        ( QUESTION0 -1 -1.337e+05 7.221e+02 5.801e+02
s>            ( - -3.383e+04 1 0)
s>            ( SILENCE -1 -9.918e+04 3.527e+02 4.315e+02
s>                ( - -2.721e+04 1 0)
s>                ( - -7.162e+04 1 0)))
s>        ( QUESTION6 -1 -2.285e+05 5.610e+02 9.594e+02
s>            ( - -1.222e+05 2 0)
s>            ( QUESTION0 -1 -1.058e+05 3.821e+02 4.395e+02
s>                ( - -3.726e+04 1 0)
s>                ( - -6.815e+04 1 0))))INFO: dtree.c(1439): stop. leaf nodes are specific
INFO: dtree.c(1478): Final simple tree
|( WDBNDRY_E 0 -1.544e+05 1.417e+03 6.422e+02
|    ( QUESTION0_0_R 1 -5.344e+04 4.081e+02 2.186e+02
|        ( - -2.699e+04 1 0)
|        ( - -2.604e+04 1 0))
|    ( WDBNDRY_B 0 -9.951e+04 5.993e+02 4.236e+02
|        ( - -3.269e+04 1 0)
|        ( - -6.623e+04 1 0)))
s>    ( WDBNDRY_E 0 -1.544e+05 1.417e+03 6.422e+02
s>        ( QUESTION0_0_R 1 -5.344e+04 4.081e+02 2.186e+02
s>            ( - -2.699e+04 1 0)
s>            ( - -2.604e+04 1 0))
s>        ( WDBNDRY_B 0 -9.951e+04 5.993e+02 4.236e+02
s>            ( - -3.269e+04 1 0)
s>            ( - -6.623e+04 1 0)))INFO: dtree.c(1315): Comp split 4
INFO: dtree.c(1439): stop. leaf nodes are specific
INFO: dtree.c(1478): Final simple tree
|( QUESTION0_1_R 1 -2.371e+05 1.232e+03 1.016e+03
|    ( - -8.017e+04 1 0)
|    ( QUESTION0 1 -1.557e+05 4.968e+02 6.697e+02
|        ( QUESTION1 -1 -9.094e+04 1.573e+02 3.929e+02
|            ( - -6.180e+04 1 0)
|            ( - -2.898e+04 1 0))
|        ( - -6.426e+04 1 0)))
s>    ( QUESTION0_1_R 1 -2.371e+05 1.232e+03 1.016e+03
s>        ( - -8.017e+04 1 0)
s>        ( QUESTION0 1 -1.557e+05 4.968e+02 6.697e+02
s>            ( QUESTION1 -1 -9.094e+04 1.573e+02 3.929e+02
s>                ( - -6.180e+04 1 0)
s>                ( - -2.898e+04 1 0))
s>            ( - -6.426e+04 1 0)))INFO: dtree.c(1439): stop. leaf nodes are specific
INFO: dtree.c(1478): Final simple tree
|( WDBNDRY_B 0 -1.130e+05 7.370e+02 4.776e+02
|    ( QUESTION0 -1 -8.215e+04 2.199e+02 3.492e+02
|        ( - -3.236e+04 1 0)
|        ( - -4.957e+04 2 0))
|    ( - -3.013e+04 1 0))
s>    ( WDBNDRY_B 0 -1.130e+05 7.370e+02 4.776e+02
s>        ( QUESTION0 -1 -8.215e+04 2.199e+02 3.492e+02
s>            ( - -3.236e+04 1 0)
s>            ( - -4.957e+04 2 0))
s>        ( - -3.013e+04 1 0))INFO: dtree.c(1315): Comp split 5
INFO: dtree.c(1439): stop. leaf nodes are specific
INFO: dtree.c(1478): Final simple tree
|( WDBNDRY_B 0 -9.951e+04 5.993e+02 4.236e+02
|    ( - -3.269e+04 1 0)
|    ( - -6.623e+04 1 0))
s>    ( WDBNDRY_B 0 -9.951e+04 5.993e+02 4.236e+02
s>        ( - -3.269e+04 1 0)
s>        ( - -6.623e+04 1 0))INFO: dtree.c(1439): stop. leaf nodes are specific
INFO: dtree.c(1478): Final simple tree
|( QUESTION0_0_R 1 -5.344e+04 4.081e+02 2.186e+02
|    ( - -2.699e+04 1 0)
|    ( - -2.604e+04 1 0))
s>    ( QUESTION0_0_R 1 -5.344e+04 4.081e+02 2.186e+02
s>        ( - -2.699e+04 1 0)
s>        ( - -2.604e+04 1 0))INFO: dtree.c(1315): Comp split 6
INFO: dtree.c(1439): stop. leaf nodes are specific
INFO: dtree.c(1478): Final simple tree
|( QUESTION0 1 -1.557e+05 4.968e+02 6.697e+02
|    ( QUESTION1 -1 -9.094e+04 1.573e+02 3.929e+02
|        ( - -6.180e+04 1 0)
|        ( - -2.898e+04 1 0))
|    ( - -6.426e+04 1 0))
s>    ( QUESTION0 1 -1.557e+05 4.968e+02 6.697e+02
s>        ( QUESTION1 -1 -9.094e+04 1.573e+02 3.929e+02
s>            ( - -6.180e+04 1 0)
s>            ( - -2.898e+04 1 0))
s>        ( - -6.426e+04 1 0))INFO: dtree.c(1315): Comp split 7
INFO: dtree.c(1439): stop. leaf nodes are specific
INFO: dtree.c(1478): Final simple tree
|( SILENCE -1 -9.918e+04 3.527e+02 4.315e+02
|    ( - -2.721e+04 1 0)
|    ( - -7.162e+04 1 0))
s>    ( SILENCE -1 -9.918e+04 3.527e+02 4.315e+02
s>        ( - -2.721e+04 1 0)
s>        ( - -7.162e+04 1 0))INFO: dtree.c(1439): stop. leaf nodes are specific
INFO: dtree.c(1478): Final simple tree
|( QUESTION6 -1 -2.628e+05 5.184e+02 1.108e+03
|    ( - -1.222e+05 2 0)
|    ( QUESTION0 1 -1.401e+05 4.919e+02 5.881e+02
|        ( - -3.383e+04 1 0)
|        ( QUESTION0 -1 -1.058e+05 3.821e+02 4.395e+02
|            ( - -3.726e+04 1 0)
|            ( - -6.815e+04 1 0))))
s>    ( QUESTION6 -1 -2.628e+05 5.184e+02 1.108e+03
s>        ( - -1.222e+05 2 0)
s>        ( QUESTION0 1 -1.401e+05 4.919e+02 5.881e+02
s>            ( - -3.383e+04 1 0)
s>            ( QUESTION0 -1 -1.058e+05 3.821e+02 4.395e+02
s>                ( - -3.726e+04 1 0)
s>                ( - -6.815e+04 1 0))))INFO: dtree.c(1315): Comp split 8
INFO: dtree.c(1315): Comp split 9
INFO: dtree.c(1439): stop. leaf nodes are specific
INFO: dtree.c(1478): Final simple tree
|( QUESTION2_11_L -1 -4.646e+05 5.067e+02 2.004e+03
|    ( - -3.645e+04 1 0)
|    ( - -4.276e+05 1 0))
s>    ( QUESTION2_11_L -1 -4.646e+05 5.067e+02 2.004e+03
s>        ( - -3.645e+04 1 0)
s>        ( - -4.276e+05 1 0))INFO: dtree.c(1315): Comp split 10
INFO: dtree.c(1439): stop. leaf nodes are specific
INFO: dtree.c(1478): Final simple tree
|( QUESTION0 -1 -8.215e+04 2.199e+02 3.492e+02
|    ( - -3.236e+04 1 0)
|    ( - -4.957e+04 2 0))
s>    ( QUESTION0 -1 -8.215e+04 2.199e+02 3.492e+02
s>        ( - -3.236e+04 1 0)
s>        ( - -4.957e+04 2 0))INFO: dtree.c(1315): Comp split 11
INFO: dtree.c(1315): Comp split 12
INFO: dtree.c(1439): stop. leaf nodes are specific
INFO: dtree.c(1478): Final simple tree
|( QUESTION0 -1 -1.058e+05 3.821e+02 4.395e+02
|    ( - -3.726e+04 1 0)
|    ( - -6.815e+04 1 0))
s>    ( QUESTION0 -1 -1.058e+05 3.821e+02 4.395e+02
s>        ( - -3.726e+04 1 0)
s>        ( - -6.815e+04 1 0))INFO: dtree.c(1439): stop. leaf nodes are specific
INFO: dtree.c(1478): Final simple tree
|( QUESTION0 -1 -1.565e+05 4.379e+02 6.684e+02
|    ( - -3.383e+04 1 0)
|    ( - -1.222e+05 2 0))
s>    ( QUESTION0 -1 -1.565e+05 4.379e+02 6.684e+02
s>        ( - -3.383e+04 1 0)
s>        ( - -1.222e+05 2 0))INFO: dtree.c(1315): Comp split 13
INFO: dtree.c(1315): Comp split 14
INFO: dtree.c(1439): stop. leaf nodes are specific
INFO: dtree.c(1478): Final simple tree
|( QUESTION1 -1 -9.094e+04 1.573e+02 3.929e+02
|    ( - -6.180e+04 1 0)
|    ( - -2.898e+04 1 0))
s>    ( QUESTION1 -1 -9.094e+04 1.573e+02 3.929e+02
s>        ( - -6.180e+04 1 0)
s>        ( - -2.898e+04 1 0))INFO: dtree.c(1315): Comp split 15
INFO: dtree.c(1315): Comp split 16
INFO: dtree.c(1315): Comp split 17
INFO: dtree.c(1315): Comp split 18
INFO: dtree.c(1315): Comp split 19
INFO: dtree.c(1315): Comp split 20
INFO: dtree.c(1315): Comp split 21
INFO: dtree.c(1318): stop. leaf nodes are specific
Wed Apr  4 22:08:42 2018
