Current configuration:
[NAME]		[DEFLT]	[VALUE]
-accumdir		/home/saria/Downloads/tutorial2/trainv2/trainv2/aze/bwaccumdir/aze_buff_1,
-constE		3.0	3.000000e+00
-dcountfn		
-example	no	no
-fullvar	no	no
-help		no	no
-inmeanfn		
-inmixwfn		
-invarfn		
-meanfn			/home/saria/Downloads/tutorial2/trainv2/trainv2/aze/model_parameters/aze.cd_cont_200/means
-mixwfn			/home/saria/Downloads/tutorial2/trainv2/trainv2/aze/model_parameters/aze.cd_cont_200/mixture_weights
-mmie		no	no
-oaccumdir		
-regmatfn		
-tiedvar	no	no
-tmatfn			/home/saria/Downloads/tutorial2/trainv2/trainv2/aze/model_parameters/aze.cd_cont_200/transition_matrices
-varfn			/home/saria/Downloads/tutorial2/trainv2/trainv2/aze/model_parameters/aze.cd_cont_200/variances

INFO: main.c(207): Reading and accumulating counts from /home/saria/Downloads/tutorial2/trainv2/trainv2/aze/bwaccumdir/aze_buff_1
INFO: s3mixw_io.c(117): Read /home/saria/Downloads/tutorial2/trainv2/trainv2/aze/bwaccumdir/aze_buff_1/mixw_counts [296x1x8 array]
INFO: s3tmat_io.c(118): Read /home/saria/Downloads/tutorial2/trainv2/trainv2/aze/bwaccumdir/aze_buff_1/tmat_counts [32x3x4 array]
INFO: s3gau_io.c(386): Read /home/saria/Downloads/tutorial2/trainv2/trainv2/aze/bwaccumdir/aze_buff_1/gauden_counts with means with vars (2pass) [296x1x8 vector arrays]
INFO: main.c(321): -2passvar yes
INFO: main.c(391): Normalizing mean for n_mgau= 296, n_stream= 1, n_density= 8
INFO: main.c(414): Normalizing var
INFO: s3mixw_io.c(233): Wrote /home/saria/Downloads/tutorial2/trainv2/trainv2/aze/model_parameters/aze.cd_cont_200/mixture_weights [296x1x8 array]
INFO: s3tmat_io.c(176): Wrote /home/saria/Downloads/tutorial2/trainv2/trainv2/aze/model_parameters/aze.cd_cont_200/transition_matrices [32x3x4 array]
INFO: s3gau_io.c(228): Wrote /home/saria/Downloads/tutorial2/trainv2/trainv2/aze/model_parameters/aze.cd_cont_200/means [296x1x8 array]
INFO: s3gau_io.c(228): Wrote /home/saria/Downloads/tutorial2/trainv2/trainv2/aze/model_parameters/aze.cd_cont_200/variances [296x1x8 array]
Wed Apr  4 22:17:50 2018
Current Overall Likelihood Per Frame = -152.781403384023
Convergence ratio = 0.191766069257113
